[
  {
    "id": "bc1",
    "title": "Cat bc1",
    "imageUrl": "https://jonasfa.gitlab.io/cats/images/bc1.jpg",
    "quote": "“Every cat is my best friend.” – Unknown"
  },
  {
    "id": "bc2",
    "title": "Cat bc2",
    "imageUrl": "https://jonasfa.gitlab.io/cats/images/bc2.jpg",
    "quote": "“All you need is love and a cat.” – Unknown"
  },
  {
    "id": "bc3",
    "title": "Cat bc3",
    "imageUrl": "https://jonasfa.gitlab.io/cats/images/bc3.jpg",
    "quote": "“What greater gift than the love of a cat?” – Unknown"
  },
  {
    "id": "bc4",
    "title": "Cat bc4",
    "imageUrl": "https://jonasfa.gitlab.io/cats/images/bc4.jpg",
    "quote": "“I love my cats more than I love most people. Probably more than is healthy.” – Amy Lee"
  },
  {
    "id": "bc5",
    "title": "Cat bc5",
    "imageUrl": "https://jonasfa.gitlab.io/cats/images/bc5.jpg",
    "quote": "“Cats are connoisseurs of comfort.” – James Herriot"
  },
  {
    "id": "bc6",
    "title": "Cat bc6",
    "imageUrl": "https://jonasfa.gitlab.io/cats/images/bc6.jpg",
    "quote": "“You can not look at a sleeping cat and feel tense.” – Jane Pauley"
  },
  {
    "id": "bc7",
    "title": "Cat bc7",
    "imageUrl": "https://jonasfa.gitlab.io/cats/images/bc7.jpg",
    "quote": "“One cat just leads to another.” – Ernest Hemingway"
  }
]
